{
  "presets": [
    "@babel/preset-typescript",
    [
      "@babel/preset-env",
      {
        "useBuiltIns": "entry",
        "corejs": 3
      }
    ],
    "@babel/preset-react"
  ],
  "babelrcRoots": ["*"],
  "plugins": [
    ["@babel/plugin-proposal-class-properties", { "loose": true }],
    ["@babel/plugin-proposal-private-property-in-object", { "loose": true }],
    ["@babel/plugin-proposal-private-methods", { "loose": true }],
    "@babel/proposal-object-rest-spread"
  ]
}
