datetime,variable,value
2023-07-30 14:20:04,v1,30
2023-07-30 14:20:04,v2,95
2023-07-30 14:20:04,v3,22
2023-07-30 14:20:04,v4,14
2023-07-30 14:20:04,v5,59
2023-07-30 14:20:04,v6,52
2023-07-30 14:20:04,v7,88
2023-07-30 14:20:04,v8,20
2023-07-30 14:20:04,v9,99
2023-07-30 14:20:04,v10,66
2023-07-30 15:20:04,v1,37
2023-07-30 15:20:04,v2,50
2023-07-30 15:20:04,v3,81
2023-07-30 15:20:04,v4,79
2023-07-30 15:20:04,v5,84
2023-07-30 15:20:04,v6,91
2023-07-30 15:20:04,v7,82
2023-07-30 15:20:04,v8,89
2023-07-30 15:20:04,v9,6
2023-07-30 15:20:04,v10,67
2023-07-30 16:20:04,v1,96
2023-07-30 16:20:04,v2,13
2023-07-30 16:20:04,v3,98
2023-07-30 16:20:04,v4,10
2023-07-30 16:20:04,v5,86
2023-07-30 16:20:04,v6,23
2023-07-30 16:20:04,v7,74
2023-07-30 16:20:04,v8,47
2023-07-30 16:20:04,v9,73
2023-07-30 16:20:04,v10,40
2023-07-30 17:20:04,v1,75
2023-07-30 17:20:04,v2,18
2023-07-30 17:20:04,v3,92
2023-07-30 17:20:04,v4,43
2023-07-30 17:20:04,v5,16
2023-07-30 17:20:04,v6,27
2023-07-30 17:20:04,v7,76
2023-07-30 17:20:04,v8,24
2023-07-30 17:20:04,v9,1
2023-07-30 17:20:04,v10,87
2023-07-30 18:20:04,v1,44
2023-07-30 18:20:04,v2,29
2023-07-30 18:20:04,v3,58
2023-07-30 18:20:04,v4,55
2023-07-30 18:20:04,v5,65
2023-07-30 18:20:04,v6,56
2023-07-30 18:20:04,v7,9
2023-07-30 18:20:04,v8,78
2023-07-30 18:20:04,v9,49
2023-07-30 18:20:04,v10,36
2023-07-30 19:20:04,v1,35
2023-07-30 19:20:04,v2,80
2023-07-30 19:20:04,v3,8
2023-07-30 19:20:04,v4,46
2023-07-30 19:20:04,v5,48
2023-07-30 19:20:04,v6,100
2023-07-30 19:20:04,v7,17
2023-07-30 19:20:04,v8,41
2023-07-30 19:20:04,v9,33
2023-07-30 19:20:04,v10,11
2023-07-30 20:20:04,v1,77
2023-07-30 20:20:04,v2,62
2023-07-30 20:20:04,v3,94
2023-07-30 20:20:04,v4,15
2023-07-30 20:20:04,v5,69
2023-07-30 20:20:04,v6,63
2023-07-30 20:20:04,v7,61
2023-07-30 20:20:04,v8,54
2023-07-30 20:20:04,v9,38
2023-07-30 20:20:04,v10,93
2023-07-30 21:20:04,v1,39
2023-07-30 21:20:04,v2,26
2023-07-30 21:20:04,v3,90
2023-07-30 21:20:04,v4,83
2023-07-30 21:20:04,v5,31
2023-07-30 21:20:04,v6,2
2023-07-30 21:20:04,v7,51
2023-07-30 21:20:04,v8,28
2023-07-30 21:20:04,v9,42
2023-07-30 21:20:04,v10,7
2023-07-30 22:20:04,v1,5
2023-07-30 22:20:04,v2,60
2023-07-30 22:20:04,v3,21
2023-07-30 22:20:04,v4,25
2023-07-30 22:20:04,v5,3
2023-07-30 22:20:04,v6,70
2023-07-30 22:20:04,v7,34
2023-07-30 22:20:04,v8,68
2023-07-30 22:20:04,v9,57
2023-07-30 22:20:04,v10,32
2023-07-30 23:20:04,v1,19
2023-07-30 23:20:04,v2,85
2023-07-30 23:20:04,v3,53
2023-07-30 23:20:04,v4,45
2023-07-30 23:20:04,v5,71
2023-07-30 23:20:04,v6,64
2023-07-30 23:20:04,v7,4
2023-07-30 23:20:04,v8,12
2023-07-30 23:20:04,v9,97
2023-07-30 23:20:04,v10,72
