{
  "uuid": "41d4dd4f-82bb-4944-a8f5-f9635086156b",
  "phenomenon": "OBSC_TS",
  "sequence": "A05",
  "validDateStart": "2020-11-11T15:00:00Z",
  "validDateEnd": "2020-11-11T18:00:00Z",
  "firName": "AMSTERDAM FIR",
  "locationIndicatorATSU": "EHAA",
  "locationIndicatorATSR": "EHAA",
  "locationIndicatorMWO": "EHDB",
  "isObservationOrForecast": "OBS",
  "observationOrForecastTime": "2020-11-11T15:00:00Z",
  "movementType": "FORECAST_POSITION",
  "change": "WKN",
  "type": "NORMAL",
  "status": "CANCELLED",
  "levelInfoMode": "AT",
  "level": {
    "value": 1000,
    "unit": "ft"
  },
  "startGeometry": {
    "type": "FeatureCollection",
    "features": [
      {
        "type": "Feature",
        "properties": {
          "selectionType": "box"
        },
        "geometry": {
          "type": "Polygon",
          "coordinates": [
            [
              [0.853303944859795, 54.59563077557146],
              [0.853303944859795, 56.299434402131965],
              [8.364981676699648, 56.299434402131965],
              [8.364981676699648, 54.59563077557146],
              [0.853303944859795, 54.59563077557146]
            ]
          ]
        }
      }
    ]
  },
  "startGeometryIntersect": {
    "type": "FeatureCollection",
    "features": [
      {
        "type": "Feature",
        "properties": {
          "selectionType": "poly"
        },
        "geometry": {
          "type": "Polygon",
          "coordinates": [
            [
              [6.500001393444259, 54.595631],
              [2.8567180183386474, 54.595631],
              [3.368817, 55.764314],
              [4.331914, 55.332644],
              [4.999999, 54.999999],
              [6.500002, 55.000002],
              [6.500001393444259, 54.595631]
            ]
          ]
        }
      }
    ]
  },
  "endGeometry": {
    "type": "FeatureCollection",
    "features": [
      {
        "type": "Feature",
        "properties": {
          "selectionType": "box"
        },
        "geometry": {
          "type": "Polygon",
          "coordinates": [
            [
              [0.19374199767385722, 50.19557093912596],
              [0.19374199767385722, 52.01288666298136],
              [9.50089391907543, 52.01288666298136],
              [9.50089391907543, 50.19557093912596],
              [0.19374199767385722, 50.19557093912596]
            ]
          ]
        }
      }
    ]
  },
  "endGeometryIntersect": {
    "type": "FeatureCollection",
    "features": [
      {
        "type": "Feature",
        "properties": {
          "selectionType": "poly"
        },
        "geometry": {
          "type": "Polygon",
          "coordinates": [
            [
              [2.4193505219008555, 52.012887],
              [6.694951620112256, 52.012887],
              [6.405001, 51.830828],
              [5.94639, 51.811663],
              [6.222223, 51.361666],
              [5.934168, 51.036386],
              [6.011797, 50.757273],
              [5.651667, 50.824717],
              [5.848333, 51.139444],
              [5.078611, 51.391665],
              [4.397501, 51.452776],
              [3.952501, 51.214441],
              [3.373613, 51.309999],
              [3.36389, 51.313608],
              [3.362223, 51.320002],
              [3.370001, 51.369722],
              [2.000002, 51.500002],
              [2.4193505219008555, 52.012887]
            ]
          ]
        }
      }
    ]
  }
}
