{
  "name": "theme",
  "$schema": "../../node_modules/nx/schemas/project-schema.json",
  "sourceRoot": "libs/theme/src",
  "projectType": "library",
  "targets": {
    "build": {
      "executor": "@nx/rollup:rollup",
      "outputs": ["{options.outputPath}"],
      "options": {
        "outputPath": "dist/libs/theme",
        "tsConfig": "libs/theme/tsconfig.lib.json",
        "project": "libs/theme/package.json",
        "entryFile": "libs/theme/src/index.ts",
        "external": ["react", "react-dom", "@mui/material"],
        "rollupConfig": "@nx/react/plugins/bundle-rollup",
        "assets": [
          {
            "glob": "README.md",
            "input": "./libs/theme",
            "output": "."
          }
        ]
      }
    },
    "lint": {
      "executor": "@nx/linter:eslint",
      "options": {
        "lintFilePatterns": ["libs/theme/**/*.{ts,tsx,js,jsx}"]
      }
    },
    "test": {
      "executor": "@nx/jest:jest",
      "outputs": ["{workspaceRoot}/coverage/libs/theme"],
      "options": {
        "jestConfig": "libs/theme/jest.config.js",
        "passWithNoTests": true,
        "codeCoverage": true
      }
    },
    "storybook": {
      "executor": "@nx/storybook:storybook",
      "options": {
        "port": 4900,
        "configDir": "libs/theme/.storybook",
        "outputDir": "dist/storybook/theme",
        "uiFramework": "@storybook/react"
      },
      "configurations": {
        "ci": {
          "quiet": true
        }
      }
    },
    "build-storybook": {
      "executor": "@nx/storybook:build",
      "outputs": ["{options.outputPath}"],
      "options": {
        "configDir": "libs/theme/.storybook",
        "outputDir": "dist/storybook/theme",
        "uiFramework": "@storybook/react"
      },
      "configurations": {
        "ci": {
          "quiet": true
        }
      }
    },
    "typecheck": {
      "executor": "nx:run-commands",
      "options": {
        "command": "tsc -p libs/theme/tsconfig.lib.json"
      }
    },
    "docs": {
      "executor": "nx:run-commands",
      "options": {
        "command": "npx typedoc --out docs/theme libs/theme/src/index.ts --tsconfig libs/theme/tsconfig.lib.json"
      }
    }
  },
  "tags": ["scope:theme"]
}
