[
  {
    "lat": 52.377956,
    "lon": 4.89707,
    "name": "Amsterdam"
  },
  {
    "lat": 52.092876,
    "lon": 5.10448,
    "name": "Utrecht"
  },
  {
    "lat": 50.851368,
    "lon": 5.690973,
    "name": "Maastricht"
  },
  {
    "lat": 53.551086,
    "lon": 9.993682,
    "name": "Hamburg"
  }
]
