{
  "preset": {
    "presetType": "mapPreset",
    "presetId": "mapPreset-1",
    "presetName": "Layer manager preset",
    "services": [
      {
        "name": "Radar",
        "url": "https://adaguc-server-geoweb.geoweb.knmi.cloud/adagucserver?dataset=RADAR",
        "id": "radar"
      },
      {
        "name": "Cell tracking",
        "url": "https://adaguc-server-geoweb.geoweb.knmi.cloud/adagucserver?dataset=cell-tracking",
        "id": "celltracking"
      },
      {
        "name": "Harmonie N25",
        "url": "https://adaguc-server-geoweb.geoweb.knmi.cloud/adagucserver?dataset=HARM_N25",
        "id": "harmonie"
      },
      {
        "name": "Harmonie N25 Model Levels",
        "url": "https://adaguc-server-geoweb.geoweb.knmi.cloud/adagucserver?dataset=HARM_N25_ML",
        "id": "harmonieml"
      },
      {
        "name": "Harmonie EPS",
        "url": "https://adaguc-server-geoweb.geoweb.knmi.cloud/adagucserver?dataset=HARMONEPS",
        "id": "harmonieeps"
      },
      {
        "name": "Harmonie HAP01",
        "url": "https://adaguc-server-geoweb.geoweb.knmi.cloud/adagucserver?dataset=knmi_hap1_nl_2p5km",
        "id": "harmonieHAP01"
      },
      {
        "name": "Harmonie HAP02",
        "url": "https://adaguc-server-geoweb.geoweb.knmi.cloud/adagucserver?dataset=knmi_hap2_nl_2p5km",
        "id": "harmonieHAP02"
      },
      {
        "name": "Harmonie HA43",
        "url": "https://adaguc-server-geoweb.geoweb.knmi.cloud/adagucserver?dataset=knmi_ha43_nl_2p5km",
        "id": "harmonieHA43"
      },
      {
        "name": "Harmonie HAP02 BES",
        "url": "https://adaguc-server-geoweb.geoweb.knmi.cloud/adagucserver?dataset=besharmonie_hap2_bes",
        "id": "besharmonie"
      },
      {
        "name": "ECMWF (KNMI)",
        "url": "https://eccharts.ecmwf.int/wms/?token=knmi",
        "id": "ECMWFKNMI"
      },
      {
        "name": "Lightning",
        "url": "https://adaguc-server-geoweb.geoweb.knmi.cloud/adagucserver?dataset=LGT",
        "id": "lightning"
      },
      {
        "name": "PASCAL",
        "url": "https://adaguc-server-geoweb.geoweb.knmi.cloud/adaguc-server?DATASET=PASCAL&",
        "id": "pascal"
      },
      {
        "name": "Observations",
        "url": "https://adaguc-server-geoweb.geoweb.knmi.cloud/adagucserver?dataset=OBS",
        "id": "observations"
      },
      {
        "name": "WOW DATA - Weather On the Web",
        "url": "https://adaguc-server-geoweb.geoweb.knmi.cloud/adagucserver?dataset=WOWDATA",
        "id": "wowdata"
      },
      {
        "name": "Overlays",
        "url": "https://adaguc-server-geoweb.geoweb.knmi.cloud/adagucserver?dataset=OVL",
        "id": "overlays"
      },
      {
        "name": "Satellite",
        "url": "https://adaguc-server-geoweb.geoweb.knmi.cloud/adagucserver?dataset=SAT",
        "id": "satellite"
      },
      {
        "name": "Severe weather",
        "url": "https://adaguc-server-geoweb.geoweb.knmi.cloud/adagucserver?dataset=NOWCASTMIX",
        "id": "nowcastmix"
      },
      {
        "name": "BES Seismic",
        "url": "https://adaguc-server-geoweb.geoweb.knmi.cloud/adagucserver?dataset=BES_SEISMIC",
        "id": "besseismic"
      },
      {
        "name": "DWD",
        "url": "https://maps.dwd.de/geoserver/ows?",
        "id": "dwd"
      },
      {
        "name": "Tropical cyclones track and intensity (NOAA)",
        "url": "https://nowcoast.noaa.gov/arcgis/services/nowcoast/wwa_meteocean_tropicalcyclones_trackintensityfcsts_time/MapServer/WMSServer?",
        "id": "trackcyclonesnoaa"
      },
      {
        "name": "Active tropical cyclones (NOAA)",
        "url": "https://idpgis.ncep.noaa.gov/arcgis/services/NWS_Forecasts_Guidance_Warnings/NHC_Atl_trop_cyclones/MapServer/WMSServer?",
        "id": "activecyclonesnoaa"
      }
    ],
    "baseServices": [
      {
        "name": "KNMIBaselayers",
        "url": "https://adaguc-server-geoweb.geoweb.knmi.cloud/adagucserver?DATASET=baselayers",
        "id": "KNMIgeoservicesBaselayers"
      },
      {
        "name": "geoservicesBaselayers",
        "url": "https://geoservices.knmi.nl/wms?DATASET=baselayers",
        "id": "KNMIgeoservicesBaselayers"
      },
      {
        "name": "DWD",
        "url": "https://maps.dwd.de/geoserver/ows?",
        "id": "base-dwd"
      }
    ],
    "layers": [
      {
        "id": "layerid_2",
        "name": "WorldMap_Light_Grey_Canvas",
        "type": "twms",
        "layerType": "baseLayer"
      },
      {
        "service": "https://services.arcgisonline.com/ArcGIS/rest/services/Canvas/World_Light_Gray_Base/MapServer/tile/",
        "id": "layerid_3",
        "name": "arcGisCanvas",
        "type": "twms",
        "enabled": true,
        "layerType": "baseLayer"
      },
      {
        "id": "base-layer-2",
        "name": "OpenStreetMap_NL",
        "type": "twms",
        "layerType": "baseLayer",
        "enabled": true
      },
      {
        "service": "https://maps.heigit.org/osm-wms/service",
        "id": "layerid_5",
        "name": "osm_auto:all",
        "layerType": "baseLayer"
      },
      {
        "service": "https://adaguc-server-geoweb.geoweb.knmi.cloud/adagucserver?DATASET=baselayers",
        "name": "radis-basemap-standard",
        "layerType": "baseLayer"
      }
    ]
  }
}
