{
  "name": "shared",
  "$schema": "../../node_modules/nx/schemas/project-schema.json",
  "sourceRoot": "libs/shared/src",
  "projectType": "library",
  "generators": {},
  "targets": {
    "lint": {
      "executor": "@nx/linter:eslint",
      "options": {
        "lintFilePatterns": ["libs/shared/**/*.{ts,tsx,js,jsx}"]
      }
    },
    "build": {
      "executor": "@nx/rollup:rollup",
      "options": {
        "outputPath": "dist/libs/shared",
        "tsConfig": "libs/shared/tsconfig.lib.json",
        "project": "libs/shared/package.json",
        "entryFile": "libs/shared/src/index.ts",
        "external": [
          "react",
          "react-dom",
          "@mui/material",
          "react-hook-form",
          "date-fns"
        ],
        "rollupConfig": "@nx/react/plugins/bundle-rollup",
        "assets": [
          {
            "glob": "README.md",
            "input": "./libs/shared",
            "output": "."
          }
        ]
      },
      "outputs": ["{options.outputPath}"]
    },
    "test": {
      "executor": "@nx/jest:jest",
      "options": {
        "jestConfig": "libs/shared/jest.config.js",
        "passWithNoTests": true,
        "codeCoverage": true
      },
      "outputs": ["{workspaceRoot}/coverage/libs/shared"]
    },
    "storybook": {
      "executor": "@nx/storybook:storybook",
      "options": {
        "port": 4800,
        "configDir": "libs/shared/.storybook",
        "outputDir": "dist/storybook/shared",
        "uiFramework": "@storybook/react"
      },
      "configurations": {
        "ci": {
          "quiet": true
        }
      }
    },
    "build-storybook": {
      "executor": "@nx/storybook:build",
      "outputs": ["{options.outputPath}"],
      "options": {
        "configDir": "libs/shared/.storybook",
        "outputDir": "dist/storybook/shared",
        "uiFramework": "@storybook/react"
      },
      "configurations": {
        "ci": {
          "quiet": true
        }
      }
    },
    "typecheck": {
      "executor": "nx:run-commands",
      "options": {
        "command": "tsc -p libs/shared/tsconfig.lib.json"
      }
    }
  },
  "tags": ["scope:shared"]
}
