{
  "name": "core",
  "$schema": "../../node_modules/nx/schemas/project-schema.json",
  "sourceRoot": "libs/core/src",
  "projectType": "library",
  "targets": {
    "build": {
      "executor": "@nx/rollup:rollup",
      "outputs": ["{options.outputPath}"],
      "options": {
        "outputPath": "dist/libs/core",
        "tsConfig": "libs/core/tsconfig.lib.json",
        "project": "libs/core/package.json",
        "entryFile": "libs/core/src/index.ts",
        "external": [
          "react",
          "react-dom",
          "@mui/material",
          "es6-enum",
          "immer",
          "lodash",
          "lodash.clonedeep",
          "moment",
          "proj4",
          "react-draggable",
          "react-intl",
          "react-redux",
          "react-sortablejs",
          "@redux-eggs/core",
          "@redux-eggs/redux-toolkit",
          "@redux-eggs/saga-extension",
          "redux-saga",
          "reselect",
          "throttle-debounce"
        ],
        "rollupConfig": "@nx/react/plugins/bundle-rollup",
        "assets": [
          {
            "glob": "README.md",
            "input": "./libs/core",
            "output": "."
          }
        ]
      }
    },
    "lint": {
      "executor": "@nx/linter:eslint",
      "options": {
        "lintFilePatterns": ["libs/core/**/*.{ts,tsx,js,jsx}"]
      }
    },
    "test": {
      "executor": "@nx/jest:jest",
      "outputs": ["{workspaceRoot}/coverage/libs/core"],
      "options": {
        "jestConfig": "libs/core/jest.config.js",
        "passWithNoTests": true,
        "codeCoverage": true
      }
    },
    "storybook": {
      "executor": "@nx/storybook:storybook",
      "options": {
        "port": 5001,
        "configDir": "libs/core/.storybook",
        "outputDir": "dist/storybook/core",
        "uiFramework": "@storybook/react"
      },
      "configurations": {
        "ci": {
          "quiet": true
        }
      }
    },
    "build-storybook": {
      "executor": "@nx/storybook:build",
      "outputs": ["{options.outputPath}"],
      "options": {
        "configDir": "libs/core/.storybook",
        "outputDir": "dist/storybook/core",
        "uiFramework": "@storybook/react"
      },
      "configurations": {
        "ci": {
          "quiet": true
        }
      }
    },
    "typecheck": {
      "executor": "nx:run-commands",
      "options": {
        "command": "tsc -p libs/core/tsconfig.lib.json"
      }
    },
    "docs": {
      "executor": "nx:run-commands",
      "options": {
        "command": "npx typedoc --out docs/core libs/core/src/index.ts --tsconfig libs/core/tsconfig.lib.json"
      }
    }
  },
  "tags": ["scope:core"]
}
