{
  "name": "timeseries",
  "$schema": "../../node_modules/nx/schemas/project-schema.json",
  "sourceRoot": "libs/timeseries/src",
  "projectType": "library",
  "targets": {
    "lint": {
      "executor": "@nx/linter:eslint",
      "options": {
        "lintFilePatterns": ["libs/timeseries/**/*.{ts,tsx,js,jsx}"]
      }
    },
    "build": {
      "executor": "@nx/rollup:rollup",
      "options": {
        "outputPath": "dist/libs/timeseries",
        "tsConfig": "libs/timeseries/tsconfig.lib.json",
        "project": "libs/timeseries/package.json",
        "entryFile": "libs/timeseries/src/index.ts",
        "buildableProjectDepsInPackageJsonType": "dependencies",
        "rollupConfig": "@nx/react/plugins/bundle-rollup",
        "assets": [
          {
            "glob": "README.md",
            "input": "./libs/timeseries",
            "output": "."
          }
        ]
      },
      "outputs": ["{options.outputPath}"]
    },
    "test": {
      "executor": "@nx/jest:jest",
      "outputs": ["{workspaceRoot}/coverage/libs/timeseries"],
      "options": {
        "jestConfig": "libs/timeseries/jest.config.js",
        "passWithNoTests": true,
        "codeCoverage": true
      }
    },
    "storybook": {
      "executor": "@nx/storybook:storybook",
      "options": {
        "port": 5300,
        "configDir": "libs/timeseries/.storybook",
        "outputDir": "dist/storybook/timeseries",
        "uiFramework": "@storybook/react"
      },
      "configurations": {
        "ci": {
          "quiet": true
        }
      }
    },
    "build-storybook": {
      "executor": "@nx/storybook:build",
      "outputs": ["{options.outputPath}"],
      "options": {
        "configDir": "libs/timeseries/.storybook",
        "outputDir": "dist/storybook/timeseries",
        "uiFramework": "@storybook/react"
      },
      "configurations": {
        "ci": {
          "quiet": true
        }
      }
    },
    "typecheck": {
      "executor": "nx:run-commands",
      "options": {
        "command": "tsc -p libs/timeseries/tsconfig.lib.json"
      }
    },
    "docs": {
      "executor": "nx:run-commands",
      "options": {
        "command": "npx typedoc --out docs/timeseries libs/timeseries/src/index.ts --tsconfig libs/timeseries/tsconfig.lib.json"
      }
    }
  },
  "tags": ["scope:timeseries"]
}
