{
  "$id": "firArea.schema.json",
  "title": "fir config schema",
  "description": "all properties defined in FIRConfig type",
  "type": "object",
  "properties": {
    "fir_name": {
      "type": "string"
    },
    "fir_location": {
      "$ref": "geojson.schema.json"
    },
    "location_indicator_atsr": {
      "type": "string"
    },
    "location_indicator_atsu": {
      "type": "string"
    },
    "max_hours_of_validity": {
      "type": "number"
    },
    "hours_before_validity": {
      "type": "number"
    },
    "movement_rounding_kt": {
      "type": "number"
    },
    "movement_rounding_kmh": {
      "type": "number"
    },
    "level_min": {
      "type": "object",
      "additionalProperties": {
        "type": "number"
      }
    },
    "level_max": {
      "type": "object",
      "additionalProperties": {
        "type": "number"
      }
    },
    "level_rounding_FL": {
      "type": "number"
    },
    "level_rounding_FT": {
      "type": "number"
    },
    "level_rounding_M": {
      "type": "number"
    },
    "movement_min": {
      "type": "object",
      "additionalProperties": {
        "type": "number"
      }
    },
    "movement_max": {
      "type": "object",
      "additionalProperties": {
        "type": "number"
      }
    },
    "units": {
      "type": "array",
      "items": {
        "type": "object",
        "properties": {
          "unit_type": {
            "type": "string"
          },
          "allowed_units": {
            "type": "array",
            "items": {
              "type": "string"
            },
            "minItems": 1
          }
        },
        "required": ["unit_type", "allowed_units"],
        "additionalProperties": false
      },
      "minItems": 1
    }
  },
  "required": [
    "fir_name",
    "fir_location",
    "location_indicator_atsr",
    "location_indicator_atsu",
    "max_hours_of_validity",
    "hours_before_validity",
    "units"
  ],
  "additionalProperties": false
}
